…
~~~
variants %>%
  group_by(ALT) %>%
  tally()
~~~
{: .language-r}



~~~
# A tibble: 57 × 2
   ALT                                                          n
   <chr>                                                    <int>
 1 A                                                          211
 2 AC                                                           2
 3 ACAGCCAGCCAGCCAGCCAGCCAGCCAGCCAGCCAG                         1
 4 ACAGCCAGCCAGCCAGCCAGCCAGCCAGCCAGCCAGCCAGCCAGCCAGCCAGCCAG     1
 5 ACCCCC                                                       2
 6 ACCCCCCCC                                                    2
 7 AGCGCGCGCG                                                   1
 8 AGG                                                          1
 9 AGGGGG                                                       2
10 AGGGGGG                                                      2
# … with 47 more rows
# ℹ Use `print(n = ...)` to see more rows
…
